Lab 6/simulation/qsim/lab6.msim.vcd
$comment
	File created using the following command:
		vcd file lab6.msim.vcd -direction
$end
$date
	Sat Mar 23 14:11:05 2024
$end
$version
	ModelSim Version 10.1e
$end
$timescale
	1ps
$end
$scope module reset_circuit_vlg_vec_tst $end
$var reg 1 ! Clk $end
$var reg 1 " Reset $end
$var wire 1 # Clr_PC $end
$var wire 1 $ Enable_PD $end
$var wire 1 % sampler $end
$scope module i1 $end
$var wire 1 & gnd $end
$var wire 1 ' vcc $end
$var wire 1 ( unknown $end
$var tri1 1 ) devclrn $end
$var tri1 1 * devpor $end
$var tri1 1 + devoe $end
$var wire 1 , Enable_PD~output_o $end
$var wire 1 - Clr_PC~output_o $end
$var wire 1 . Clk~input_o $end
$var wire 1 / Clk~inputclkctrl_outclk $end
$var wire 1 0 Reset~input_o $end
$var wire 1 1 present_clk.clk0~0_combout $end
$var wire 1 2 present_clk.clk0~q $end
$var wire 1 3 present_clk~6_combout $end
$var wire 1 4 present_clk~9_combout $end
$var wire 1 5 present_clk.clk1~q $end
$var wire 1 6 present_clk~8_combout $end
$var wire 1 7 present_clk.clk2~q $end
$var wire 1 8 present_clk~7_combout $end
$var wire 1 9 present_clk.clk3~q $end
$var wire 1 : Enable_PD~0_combout $end
$var wire 1 ; Enable_PD~reg0_q $end
$var wire 1 < Clr_PC~reg0_q $end
$upscope $end
$upscope $end
$enddefinitions $end
#0
$dumpvars
0!
0"
x#
x$
x%
0&
1'
x(
1)
1*
1+
x,
x-
0.
x/
00
x1
02
x3
x4
05
x6
07
x8
09
x:
0;
0<
$end
#173
0/
#480
06
#506
13
#784
08
#3314
0-
1,
0#
1$
#3336
0:
#3338
11
#3340
14
#20000
1!
0%
#20730
1.
#20917
1/
#23283
12
15
#23693
03
04
#23948
16
#40000
0!
1%
#40836
0.
#41009
0/
#50000
1"
0%
#50670
10
#53736
01
#53740
06
#53744
13
#53746
1:
#60000
1!
1%
#60730
1.
#60917
1/
#63283
1;
02
05
1<
#66585
0,
0$
#66587
1-
1#
#70000
0"
0%
#70776
00
#74112
0:
#74114
11
#74116
14
#80000
0!
1%
#80836
0.
#81009
0/
#100000
1!
0%
#100730
1.
#100917
1/
#103283
12
15
#103693
03
04
#103948
16
#120000
0!
1%
#120836
0.
#121009
0/
#140000
1!
0%
#140730
1.
#140917
1/
#143283
05
17
#143763
06
#144108
18
#160000
0!
1%
#160836
0.
#161009
0/
#180000
1!
0%
#180730
1.
#180917
1/
#183283
07
19
#183694
1:
#200000
0!
1%
#200836
0.
#201009
0/
#220000
1!
0%
#220730
1.
#220917
1/
#223283
0;
0<
#226597
0-
1,
0#
1$
#240000
0!
1%
#240836
0.
#241009
0/
#260000
1!
0%
#260730
1.
#260917
1/
#280000
0!
1%
#280836
0.
#281009
0/
#300000
1!
0%
#300730
1.
#300917
1/
#320000
0!
1%
#320836
0.
#321009
0/
#340000
1!
0%
#340730
1.
#340917
1/
#360000
0!
1%
#360836
0.
#361009
0/
#380000
1!
0%
#380730
1.
#380917
1/
#400000
0!
1%
#400836
0.
#401009
0/
#420000
1!
0%
#420730
1.
#420917
1/
#440000
0!
1%
#440836
0.
#441009
0/
#460000
1!
0%
#460730
1.
#460917
1/
#480000
0!
1%
#480836
0.
#481009
0/
#500000
1!
0%
#500730
1.
#500917
1/
#520000
0!
1%
#520836
0.
#521009
0/
#540000
1!
0%
#540730
1.
#540917
1/
#560000
0!
1%
#560836
0.
#561009
0/
#580000
1!
0%
#580730
1.
#580917
1/
#600000
0!
1%
#600836
0.
#601009
0/
#620000
1!
0%
#620730
1.
#620917
1/
#640000
0!
1%
#640836
0.
#641009
0/
#660000
1!
0%
#660730
1.
#660917
1/
#680000
0!
1%
#680836
0.
#681009
0/
#700000
1!
0%
#700730
1.
#700917
1/
#720000
0!
1%
#720836
0.
#721009
0/
#740000
1!
0%
#740730
1.
#740917
1/
#760000
0!
1%
#760836
0.
#761009
0/
#780000
1!
0%
#780730
1.
#780917
1/
#800000
0!
1%
#800836
0.
#801009
0/
#820000
1!
0%
#820730
1.
#820917
1/
#840000
0!
1%
#840836
0.
#841009
0/
#860000
1!
0%
#860730
1.
#860917
1/
#880000
0!
1%
#880836
0.
#881009
0/
#900000
1!
0%
#900730
1.
#900917
1/
#920000
0!
1%
#920836
0.
#921009
0/
#940000
1!
0%
#940730
1.
#940917
1/
#960000
0!
1%
#960836
0.
#961009
0/
#980000
1!
0%
#980730
1.
